<?xml version="1.0" encoding="UTF-8"?>
<!-- Generator: Adobe Illustrator 23.1.1, SVG Export Plug-In . SVG Version: 6.00 Build 0)  -->
<svg xmlns="http://www.w3.org/2000/svg" xmlns:xlink="http://www.w3.org/1999/xlink" version="1.1" id="Ebene_1" x="0px" y="0px" viewBox="0 0 1366 768" style="enable-background:new 0 0 1366 768;" xml:space="preserve">
<style type="text/css">
	.st0{opacity:0.64;}
	.st1{fill:#FFFFFF;}
</style>
<g>
	<g>
		<g>
			<g>
				<g class="st0">
					<g>
						<g>
							<path class="st1" d="M1020.21,358.25c-126.9,0.61-230.28,102.49-231.04,230.18c-0.76,128.88,102.52,232.93,231.08,232.99         c127.95,0.06,231.02-102.67,231.34-230.94C1251.92,461.15,1147.65,358.69,1020.21,358.25 M1020.23,875.9         c-158.66-1.29-284.97-127.41-285.2-285.57c-0.23-158.81,126.7-286.27,285.53-286.18c158.51,0.09,284.99,127.2,285.3,285.9         C1306.16,747.84,1177.42,876.01,1020.23,875.9"></path>
						</g>
						<g>
							<path class="st1" d="M925.42,590.02c0.01-37.98-0.01-75.95,0.01-113.93c0.01-16.4,12.72-24.08,27.09-16.18         c70.05,38.51,140.04,77.13,210.07,115.66c5.84,3.21,9.86,7.8,9.79,14.51c-0.07,6.42-3.89,10.9-9.57,14.03         c-70.04,38.53-140.02,77.19-210.08,115.68c-14.72,8.08-27.31,0.35-27.32-16.43C925.4,665.58,925.42,627.8,925.42,590.02"></path>
						</g>
					</g>
				</g>
			</g>
		</g>
	</g>
</g>
</svg>
